<?xml version="1.0" encoding="iso-8859-1"?>
<!-- Generator: Adobe Illustrator 19.0.0, SVG Export Plug-In . SVG Version: 6.00 Build 0)  -->
<svg fill="#DB3332" stroke="#DB3332" version="1.1" xmlns="http://www.w3.org/2000/svg" xmlns:xlink="http://www.w3.org/1999/xlink" x="0px" y="0px"
	 viewBox="0 0 128 128" style="enable-background:new 0 0 128 128;" xml:space="preserve">
<g id="_x36_">
	<polygon id="XMLID_19_" points="34.782,128 29.218,122.435 87.653,64.001 29.218,5.565 34.782,0 98.782,64.001 	"/>
</g>
<g id="Layer_1">
</g>
</svg>
