<?xml version="1.0" encoding="utf-8"?>
<!-- Generator: Adobe Illustrator 24.0.1, SVG Export Plug-In . SVG Version: 6.00 Build 0)  -->
<svg version="1.1" id="Layer_1" xmlns="http://www.w3.org/2000/svg" xmlns:xlink="http://www.w3.org/1999/xlink" x="0px" y="0px"
	 viewBox="0 0 38.6 60.6" style="enable-background:new 0 0 38.6 60.6;" xml:space="preserve">
<style type="text/css">
	.st0{fill:#565655;}
	.st1{fill:#DB3332;}
	.st2{opacity:0.1;enable-background:new    ;}
</style>
<g id="_x37_">
	<g>
		<polyline class="st0" points="11.7,28.3 0,59 3.5,60.6 19.5,32 		"/>
		<circle class="st1" cx="21.3" cy="17.4" r="17.3"/>
		<path class="st2" d="M25.9,7.4C18.3,3.9,9.3,6.4,4.6,13c0.2-1,0.7-2.1,1-3C9.6,1.4,20-2.4,28.5,1.6S41,15.9,36.9,24.7
			c-0.5,0.9-1,1.9-1.6,2.8C37.5,19.5,33.6,11,25.9,7.4z"/>
	</g>
</g>
<g id="Layer_1_1_">
</g>
</svg>
